{
  "title": "Movies –  Channel Myanmar",
  "thispage": 1,
  "page": 1,
  "total_page": 311,
  "totalCount": 311,
  "nextpage": "http://localhost:3000/movies/page/2",
  "results": [
    {
      "id": 7948,
      "title": "Listen to the Universe ",
      "rate": "7.3",
      "type": "movie",
      "year": 2020,
      "link": "http://moviechannel.herokuapp.com/movie/listen-to-the-universe-2020/",
      "slug": "listen-to-the-universe-2020",
      "img": "https://channelmyanmar.org/wp-content/uploads/2020/07/MV5BNGNmOWUxNmEtMTMzNy00NmJmLWFjNzgtOTk5YzI4OWQ4NWM0XkEyXkFqcGdeQXVyNjc3MjQzNTI@._V1_-141x200.jpg",
      "image": "https://channelmyanmar.org/wp-content/uploads/2020/07/MV5BNGNmOWUxNmEtMTMzNy00NmJmLWFjNzgtOTk5YzI4OWQ4NWM0XkEyXkFqcGdeQXVyNjc3MjQzNTI@._V1_-141x200.jpg",
      "overview": "ဒီကားက​တော့ ဂျပန်အကယ်ဒမီဇကာတင်စာရင်းထဲမှာပါခဲ့ပြီးမိုရီဆာကီဝင်းသရုပ်​ဆောင်သစ်ဆုရခဲ့တဲ့ကားပါPianists​တွေ ဂီတကိုစိတ်ဝင်စားတဲ့သူ​တွေနဲ့မိုရီဆာကီဝင်းပရိသတ်​တွေလုံးဝလက်မလွတ်သင့်တဲ့ကား​ကောင်းတစ်ကားပါနိုင်ငံတကာဆိုင်ရာပီယာနိုပြိုင်ပွဲတစ်ခုကို အဝင်းအပါအဝင်ပီယာနိုသမား၄​ယောက်ဝင်ပြိုင်ကြပါတယ်တစ်​ယောက်နဲ့တစ်​ယောက်က​တော်တာချင်းလုံးဝမတူပါဘူးတစ်​ယောက်ချင်းစီမှာသူတို့pianistဖြစ်ချင်ရတဲ့background storyတစ်ခုစီရှိပါတယ်တစ်​ယောက်ကအ​မေ​သေ​တော့pianoတီးတာကိုရပ်လိုက်​ပေမယ့် ပြန်ပြီးအသစ်ကစတင်တယ်တစ်​ယောက်က​ကျောင်းသား​လေးတစ်​ယောက်ကဂီတစတိုးမှာအလုပ်လုပ်တဲ့သူတစ်​ယောက်ကလူမျက်နှာသစ်​လေး သူတို့၄​ယောက်တင်မကတခြားဝင်ပြိုင်တဲ့သူ​တွေကလည်းအရည်မချင်းကိုယ်စီနဲ့ဝင်ပြိုင်တာဖြစ်တဲ့အတွက်ပြိုင်ပွဲတစ်ဆင့်ပြီးတစ်ဆင့်ပိုပြီးဇာတ်ရှိန်မြင့်လာတာကို​တွေ့ရမှာပါဒီကားထဲမှာ အဝင်းရဲ့ piano တီးတဲ့skillအလန်းကြီး​တွေ ကိုတဝကြီးခံစားရမှာပါFile Size - 1.7 GBQuality - Web-Dl 1080pSubtitle - Burmese (hardsub)Translator - Dolly & Yamin EiEncoder - Thit San Khant "
    },
    {
      "id": 7976,
      "title": "Iron Brothers ",
      "rate": "5.6",
      "type": "movie",
      "year": 2018,
      "link": "http://moviechannel.herokuapp.com/movie/iron-brothers-2018/",
      "slug": "iron-brothers-2018",
      "img": "https://channelmyanmar.org/wp-content/uploads/2020/07/Screen-Shot-2020-07-05-at-11.45.56-PM-136x200.png",
      "image": "https://channelmyanmar.org/wp-content/uploads/2020/07/Screen-Shot-2020-07-05-at-11.45.56-PM-136x200.png",
      "overview": "Iron Brothers (2018)================IMDb Rating - 5.6/10#Unicode2018 ကထွက်ခဲ့တဲ့ Action, Adventure, Drama အမျိုးအစားဖြစ်တဲ့ ကားကောင်းလေးတစ်ကားကိုမျှဝေပေးချင်ပါတယ်။ ဇာတ်လမ်းအကျဥ်းလေးပြောရရင် . . . အမဲလေးလိုက်လိုက် သားမွှေးလေးရောင်းလိုက်နဲ့ အတူတူနေထိုင်ကြတဲ့ အေဘယ်လ် နဲ့ ဟင်နရီတို့ ညီအစ်ကိုနှစ်ယောက် သူတို့နေတဲ့တောင်ကြားလေးဆီ ရှိုရှုန်းမျိုးနွယ် အင်ဒီးယန်းတွေ တောင်ကြားဖက်ကို ကျူးကျော်လာလို့ မတော်တဆ အစ်ကိုဖြစ်သူဟင်နရီမှ အင်ဒီးယန်းတစ်ယောက်အား သတ်လိုက်မိတဲ့အခါမှာ မုဆိုးကနေ သားကောင်ဘဝကိုပြောင်းပြီးထွက်ပြေးတိမ်းရှောင်ရင်း ညီအစ်ကိုနှစ်ယောက်ရဲ့ချစ်ခြင်းမေတ္တာကို ပုံဖော်ရိုက်ကူးထားတဲ့ ဇာတ်ကားလေးဖြစ်တာမို့ ကြည့်ရှုအားပေးကြပါဦးနော်။(ဒီဇာတ်လမ်းရဲ့ အညွှန်းနဲ့ဘာသာပြန်ရေးသားပေးသူကတော့ Htoo Htoo Ka Joe ပဲဖြစ်ပါတယ်။)#Zawgyi2018 ကထြက္ခဲ့တဲ့ Action, Adventure, Drama အမ်ိဳးအစားျဖစ္တဲ့ ကားေကာင္းေလးတစ္ကားကိုမွ်ေဝေပးခ်င္ပါတယ္။ ဇာတ္လမ္းအက်ဥ္းေလးေျပာရရင္ . . . အမဲေလးလိုက္လိုက္ သားေမႊးေလးေရာင္းလိုက္နဲ႔ အတူတူေနထိုင္ၾကတဲ့ ေအဘယ္လ္ နဲ႔ ဟင္နရီတို႔ ..."
    },
    {
      "id": 7913,
      "title": "Body Cam ",
      "rate": "5.2",
      "type": "movie",
      "year": 2020,
      "link": "http://moviechannel.herokuapp.com/movie/body-cam-2020/",
      "slug": "body-cam-2020",
      "img": "https://channelmyanmar.org/wp-content/uploads/2020/07/Screen-Shot-2020-07-05-at-4.52.06-PM-134x200.png",
      "image": "https://channelmyanmar.org/wp-content/uploads/2020/07/Screen-Shot-2020-07-05-at-4.52.06-PM-134x200.png",
      "overview": "Body Cam (2020)==============IMDb Rating - 5.2/10#Unicodeဒီဇာတ်လမ်းရဲ့ အစပိုင်း အကျဥ်းလေးကိုပြောရရင် . . .ကလေးသေဆုံးပြီးနောက်ပိုင်း စိတ်ထိခိုက်နေတဲ့ ရဲအရာရှိ ရမ်နီ လိုမီတို တစ်ယောက် ခဏတာအနားယူပြီးပြန်လည်တာဝန်ထမ်းဆောင်တဲ့ ပထမဆုံးနေ့မှာတင် ယခင်တွဲဖက်လုပ်ကိုင်ဖူးတဲ့ ရဲအရာရှိတစ်ယောက်အသတ်ခံလိုက်ရပါတယ်။ သူ့အလောင်းကိုရှာတွေ့ပြီး ရဲကားထဲမှာ မှတ်တမ်းဗီဒီယိုဖိုင်ကို ဖွင့်ကြည့်မိရာကနေဗင်ကားလေးတစ်စီးကို တွေ့ပြီး နားလည်ရခက်တဲ့ သဘာဝလွန်ဖြစ်ရပ်များနဲ့ သက်ဆိုင်နေကြောင်းသိလိုက်ရပါတယ်။ ထိုဗင်ကားကို လိုက်လံရှာဖွေရာကနေ လုပ်ဖော်ကိုင်ဖက် ၂ယောက်ကပါ ထပ်မံအသတ်ခံလိုက်ရပါတယ်။ရမ်နီ လိုမီတိုတစ်ယောက် မိမိဘာသာ စုံစမ်းဖော်ထုတ်နေရင်း အဲ့ဖြစ်ရပ်ဆန်းမှာ မိမိဌာနက ရဲအရာရှိများကို ဦးတည်နေကြောင်း သိလိုက်ပါတယ်။ မိမိဌာနမှ ရဲအရာရှိများကို ကာကွယ်ဖို့ ဆက်လက်စုံစမ်းရာကနေ မထင်မှတ်ပဲအကြောင်းအရင်းအမှန်ကို သိလိုက်တဲ့အခါမှာတော့ ရဲအရာရှိ အနေနဲ့ ဘယ်လိုဆက်လုပ်မလဲ၊ အဲ့လိုဖြစ်ရတဲ့အကြောင်းအရင်းအမှန်က ဘာလဲ၊ ဘာကြောင့် ရဲအရာရှိတွေကို လိုက်သတ်နေရတာလဲ ဆိုတာ ရင်ခုန်စိတ်လှုပ်ရှားဖွယ်စောင့်ကြည့်ရမယ့် ရုပ်ရှင်ကောင်းတစ်ကားဖြစ်ပါတယ်။ ဒီဇာတ်ကားထဲမှာ တစ်ချို့သောကိစ္စတွေဟာ ..."
    },
    {
      "id": 7915,
      "title": "Monkey King ",
      "rate": "6",
      "type": "movie",
      "year": 2020,
      "link": "http://moviechannel.herokuapp.com/movie/monkey-king-2020/",
      "slug": "monkey-king-2020",
      "img": "https://channelmyanmar.org/wp-content/uploads/2020/07/xmqu48qf9d5k-141x200.jpg",
      "image": "https://channelmyanmar.org/wp-content/uploads/2020/07/xmqu48qf9d5k-141x200.jpg",
      "overview": "MONKEY KING 2020 လေး ဘာသာပြန်တင်ဆက်ပေးလိုက်ပါတယ်Monkey King ဆိုတာ ခေတ်အဆက်ဆက် ဗားရှင်းစုံ ပြောင်းရိုက်ခဲ့ပေမယ့်ဇာတ်အိမ်ကတော့ မပြောင်းသွားပါဘူးအခုလည်း အတူတူပါပဲ ဇာတ်အိမ်က မပြောင်းသွားပါဘူးနှစ် ၅၀၀ ပိတ်မိနေတဲ့ စွန်းဝူခုန်းကို ထန်စန်းဆရာတော်က ကယ်တင်ခဲ့ပြီးအနောက်အရပ်ကို ခရီးဆက်ရင်း လမ်းမှာ ဝူကျင့် နဲ့ ပါကျဲတို့နဲ့ ဆုံပြီး ခရီးဆက်ခဲ့တဲ့ အကြောင်းပါပဲ...သို့ပေမယ့် ပါကျဲမှာ ဦးလေး ၃ ဆိုတဲ့ ဝက်ကြီးတစ်ယောက်ပါတာရယ်ပါကျဲ ချစ်ရတဲ့ ယွီအော်ဆိုတဲ့ သတို့သမီးလေးက ပါကျဲကို ဝက်ပုံစံနဲ့တောင်အချစ်မပျက်ဘဲ အိမ်ကထွက်ပြေးပြီး အနောက်အရပ်ကို လိုက်ခဲ့တဲ့ဇာတ်လေးလေးတွေကတော့ အမြင်ဆန်း အသွင်ထူးပြီး ကြည့်ချင်စဖွယ်ဖြစ်မှာပါနောက်ပြီး ထန်စန်းကို စားဖို့ချောင်းနေတဲ့ အရိုးမဲ့မိစ္ဆာမိဖုရားလက်အောက်ကရှောင်ချီဆိုတဲ့ မိစ္ဆာကနေ သာသနာအကျိုးပြုချင်တဲ့ မိစ္ဆာမလေးအကြောင်းလည်း တစ်မျိုးဆန်းကာ အားဖြည့်ထားပါတယ်အဆုံးသတ်ပြောချင်တာကတော့ ရုပ်ချောတာတွေ ကြည့်ချင်ရင်တော့ ေကျာ်သွားလိုက်ပါ (ဒီဇာတ်လမ်းက မိစ္ဆာမတွေတော့ ချောပါတယ် )ဒါပေမယ့် ဇာတ်အိမ်ဆန်းတာလေးမှ ခုံမင်ရင်တော့ ..."
    },
    {
      "id": 7878,
      "title": "The Gangs, the Oscars, and the Walking Dead",
      "rate": "6.8",
      "type": "movie",
      "year": 2019,
      "link": "http://moviechannel.herokuapp.com/movie/the-gangs-the-oscars-and-the-walking-dead2019/",
      "slug": "the-gangs-the-oscars-and-the-walking-dead2019",
      "img": "https://image.tmdb.org/t/p/w185/6cQioujtV4fx7CPerudIulq32FJ.jpg",
      "image": "https://image.tmdb.org/t/p/w185/6cQioujtV4fx7CPerudIulq32FJ.jpg",
      "overview": "The Gangs, the Oscars, and the Walking Dead(2019)သူငယ်ချင်း(၂)ယောက်ဟာ ဝါသနာတူ ပြီးငယ်ငယ်ကတည်းက အတူကစားပြီးကြီးပြင်းလာကြတာပါ။တစ်ယောက်နဲ့တစ်ယောက် ကူညီရိုင်းပင်းပြီး အတူကြီးလာကြတယ်။အသက်လေးရလာတော့ ငယ်ငယ်တုန်းကစိတ်ကူးယဉ်ဇာတ်လမ်းတစ်ခုရိုက်ဖို့ရုပ်ရှင်လောကထဲကိုဝင်ခဲ့တယ်...ရုပ်ရှင်ပြီးအောင်မရိုက်နိုင်တဲ့အပြင် အားလုံးပျက်စီးသွားလို့ အကြွေးဗရပွနဲ့ကျန်ခဲ့တယ်...။ အလုပ်ရှုံးသွားပြီး လျော်ကြေးပေးဖို့အတွက် လူဆိုးဂိုဏ်းထဲ မဝင်ချင်ဘဲ ဝင်လိုက်ရတယ်...။သူတို့အတွက်ကံလေးပြန်တက်လာမယ်လို့ထင်လိုက်တာ...အဲ့ဂိုဏ်းထဲရောက်မှပဲ ငါးပါးမှောက်တော့တာပဲ....သူတို့ လူဆိုးဂိုဏ်းထဲရောက်ပြီး ဘယ်လိုတွေတိုင်ပတ်ကြလဲဆိုတာကိုတော့ ခံစားကြည့်ကြပါဉီး...ဇာတ်လမး်အညွှန်းနဲ့ဘာသာပြန်သူကတော့ Mi Mi ပဲဖြစ်ပါတယ်....File Size : (900 MB) and (332 MB)Quality : WEB-DL 720pFormat…mp4Duration…01:45:00Genre : ComedySubtitle : Myanmar Subtitle (Hard Sub)Translated by Mi MiEncoded by Phyo Pyae    "
    },
    {
      "id": 7798,
      "title": "One Day We’ll Talk About Today ",
      "rate": "8.0",
      "type": "movie",
      "year": 2020,
      "link": "http://moviechannel.herokuapp.com/movie/one-day-well-talk-about-today-2020/",
      "slug": "one-day-well-talk-about-today-2020",
      "img": "https://channelmyanmar.org/wp-content/uploads/2020/07/MV5BZGVmMzVlOTktMzc5Mi00ZTZjLWJiOWEtOTcyNTUxMWY4MzJjXkEyXkFqcGdeQXVyMTMxODk2OTU@._V1_-143x200.jpg",
      "image": "https://channelmyanmar.org/wp-content/uploads/2020/07/MV5BZGVmMzVlOTktMzc5Mi00ZTZjLWJiOWEtOTcyNTUxMWY4MzJjXkEyXkFqcGdeQXVyMTMxODk2OTU@._V1_-143x200.jpg",
      "overview": "\" တစ်နေ့ ကျ ငါတို့ အားလုံး ဒီနေ့အကြောင်းကိုပြန်ပြောဖြစ်ကြအုံးမယ် \"ခုတလော ရုပ်ရှင်ကောင်းကောင်း မကြည့်ရတာကြာပြီ ရုပ်ရှင်ငတ်နေတာပေါ့လေဒီလို နဲ့ Netflix က အာရှ ရုပ်ရှင်တွေထဲအင်ဒိုနီရှား နဲ့ မလေးရှား ရုပ်ရှင်တွေလိုက်မွှေ ကြည့်မိတယ်အဲ့ဒီ ထဲက မှ ဒီရုပ်ရှင်ကားကိုကြည့်မိတဲ့ အချိန် ရင်ထဲ ဒိန်းကနဲ ဖြစ်သွားတယ်ရုပ်ရှင်က ဘာမှ သိပ်မဟုတ်ဘူး ထင်ရတယ်ရိုးရိုးရှင်းရှင်းလေး ပါဒါပေမဲ့ အဲ့ဒီရိုးရှင်းတာကိုက ကိုယ်တွေကိုရင်ခုန်စေတာပဲ...ဒီရုပ်ရှင်ကတော့ အချစ် နဲ့ ပတ်သက်တာပါရိုမန့် မဟုတ်ပါဘူး မိသားစု အချစ်ပါဇတ်လမ်းထဲမှာတော့ မိသားစု ၅ ယောက်ပေါ့အဖေ အမေ နဲ့ သားကြီး သမီးလတ် သမီးငယ်မိသားစု တစ်ခု အကြောင်းပေါ့သားကြီးက အန်ကာဆာ တဲ့သမီးလတ် က အော်ရိုရာသမီးငယ်လေးကတော့ အာဝမ်ဒီမိသားစု က အင်ဒိုနီရှားနိုင်ငံရဲ့မွတ်စလာမ် မိသားစု ကို ပြထားတယ်သေချာ ဘာသာရေးတွေ လူမျိုးရေးတွေဖယ်ပြီး ..."
    },
    {
      "id": 7799,
      "title": "Arn: The Knight Templar",
      "rate": "6.8",
      "type": "movie",
      "year": 2007,
      "link": "http://moviechannel.herokuapp.com/movie/arn-the-knight-templar2007/",
      "slug": "arn-the-knight-templar2007",
      "img": "https://image.tmdb.org/t/p/w185/pbLOWq0vlc3Y6beOj0p5LehlUQy.jpg",
      "image": "https://image.tmdb.org/t/p/w185/pbLOWq0vlc3Y6beOj0p5LehlUQy.jpg",
      "overview": "Arn: The Knight Templar(2007)IMDB 6.8Rotten Tomato 61%ကလေးဘဝကထဲကအာန်းဟာ ဘုန်းတော်ကြီးတွေဆီမှာပဲကြီးပြင်းခဲ့ရတယ်...ငယ်ငယ်လေးကတည်းက ချာခ်ကျောင်းမှာပဲကြီးပြင်းလာတဲ့ အာန်တစ်ယောက်အပြင်လောကနဲ့စိမ်းနေခဲ့တယ်...။ ချစ်တက်တဲ့အရွယ်ရောက်လာပြန်တော့ ဆယ်စီလီယာ ဆိုတဲ့ ဘုရင်တော်ကောက်ဖို့ ကြံထားတဲ့လူမျိုးစုခေါင်းဆောင် သမီးလေးကိုမှ သွားချစ်မိပြန်တယ်။ဆယ်စီလီယာကို ပိုင်ဆိုင်နိုင်ဖို့ ကြိုးစားရင်း နိုင်ငံရေးအရှုတ်တော်ပုံထဲဝင်မိတဲ့အပြင် အချိန်မရွေးအသက်ပျောက်နိုင်တဲ့စစ်တလင်းနယ်မြေဖြစ်တဲ့ ဂျေရုစလင်ကို အမှုထမ်းဖို့ သွားရတဲ့အခါမှာတော့....ဒီကားဟာ European Film Awards ကိုရရှိခဲ့ပြီး (၂၀၁၀) မှာလည်း Arn ဆိုတဲ့ နာမည်နဲ့ပဲ (၆) ပိုင်းပါတဲ့Mini Series တစ်ခုထွက်ရှိထားပါသေးတယ်။အက်ရှင်ခန်းတွေမြောက်များစွာပါဝင်တာမို့...အက်ရှင်ကားကြိုက်သူတို့ လက်မလွှတ်သင့်ပါကြောင်း...ဇာတ်လမ်းအညွှန်းနဲ့ဘာသာပြန်သူကတော့ Kiwi ပဲဖြစ်ပါတယ်...File Size : (1.07 GB) and (429MB)Quality : Blu-Ray 720pFormat…mp4Duration…02:19:00Genre :  Action, Drama, RomanceSubtitle : Myanmar Subtitle (Hard Sub)Translated by KiwiEncoded by Phyo ..."
    },
    {
      "id": 7737,
      "title": "American Son ",
      "rate": "5.7",
      "type": "movie",
      "year": 2019,
      "link": "http://moviechannel.herokuapp.com/movie/american-son-2019/",
      "slug": "american-son-2019",
      "img": "https://image.tmdb.org/t/p/w185/lEIlxhIyFsia7yCqbfD4UH8iIkN.jpg",
      "image": "https://image.tmdb.org/t/p/w185/lEIlxhIyFsia7yCqbfD4UH8iIkN.jpg",
      "overview": "ဇာတ်လမ်းနာမည်က အမေရိကန်သား ဆိုတဲ့အတိုင်း အမေရိကန်နိုင်ငံက သားတစ်ယောက်အကြောင်းပါ။အမေရိကန်နိုင်ငံသား လူမည်း ဆယ်ကျော်သက်တစ်ယောက် ပျောက်ဆုံးမှုနဲ့ အစပြုထားတဲ့ ဇာတ်ကားပါ။ဒီဇာတ်လမ်းမှာ လူဖြူလူမည်း ခွဲခြားတဲ့ ခေါင်းစဉ်ကို လှလှပပ ပုံဖော်သွားပါတယ်။ဇာတ်လမ်းက ထူးခြားတဲ့ဇာတ်လမ်းတစ်ခုလို့ ဆိုရမှာပဲ ဖြစ်ပါတယ်။တစ်ဇာတ်လမ်းလုံးမှာ အဓိကဇာတ်ကောင်အနေနဲ့ ၃ ယောက်ပဲ ပါတာ ဖြစ်ပါတယ်။တစ်ဇာတ်လမ်းလုံးကို Location တစ်ခုထဲ သုံးပြီး ရိုက်သွားခဲ့တာပါ။ဘယ်လိုရိုက်ထားလဲ ဆိုတာတော့ ဇာတ်လမ်းထဲမှာ ကြည့်ကြည့်လိုက်ပါဗျာ။လူမည်းမိခင်တစ်ယောက်က သူ့သားပျောက်သွားလို့ ရဲစခန်းကို လာရှာတဲ့အချိန်မှာ လူဖြူရဲတစ်ယောက်နဲ့ စပြီး တွေ့ပါတော့တယ်။တော်တော်တော့ စိတ်ဝင်စားဖို့ ကောင်းတဲ့ ဇာတ်လမ်းတစ်ခုပါပဲ။လူ ၃ ယောက်၊ Location ၁ နေရာထဲကို စိတ်ဝင်စားအောင် ရိုက်ထားနိုင်တဲ့ကားဆိုတော့ ဘယ်လောက်ထိ ဆွဲဆောင်မှု ရှိတယ်ဆိုတာ ပြောဖို့ လိုမယ် မထင်ပါဘူး။IMDb ကတော့ 5.7/10 ရထားပါတယ်။ဘာသာပြန်နှင့် အညွှန်းကို တင်ဆက်ပေးထားသူကတော့ Myo Nyunt ပဲ ..."
    },
    {
      "id": 7690,
      "title": "Flubber ",
      "rate": "5.3",
      "type": "movie",
      "year": 1997,
      "link": "http://moviechannel.herokuapp.com/movie/flubber-1997/",
      "slug": "flubber-1997",
      "img": "https://channelmyanmar.org/wp-content/uploads/2020/07/Screen-Shot-2020-07-03-at-2.01.48-PM-134x200.png",
      "image": "https://channelmyanmar.org/wp-content/uploads/2020/07/Screen-Shot-2020-07-03-at-2.01.48-PM-134x200.png",
      "overview": "Flubber (1997)============IMDb Rating - 5.3/10#Unicodeဒီဇာတ်ကားလေးကို ကျွန်တော်တို့ ငယ်ငယ်က တစ်နည်းနည်းနဲ့ ကြည့်ဖူးခဲ့ကြပါလိမ့်မယ်ထင်ပါတယ်။မကြည့်ရသေးရင် ပြန်ကြည့်ဖို့တိုက်တွန်းချင်ပါတယ်။ Disney ရဲ့ Back to 90's Live action ကားဟောင်းလေးပဲဖြစ်ပါတယ်။ ဟာသမင်းသားကြီး ရော်ဘင် ဝီလီလျံက ဒီဇာတ်ကားတစ်ခုလုံးမှာ အဓိကပါ၀င်ထားပါတယ်။ ဇာတ်လမ်း အညွှန်းလေးက မစ်ဒ်ဖီးလ် ကောလိပ်က ဓာတုဗေဒ ပါမောက္ခ ဖိလစ်ဘရိန်းနက်ဟာ ကောလိပ်ကိုရပ်တည်နိုင်ဖို့ ရုန်းကန်နေရတဲ့သူဖြစ်ပါတယ်။ ကောလိပ်ရဲ့ ဥက္ကဌဖြစ်သူဆာရာ နဲ့ အကြိမ်ကြိမ်‌လက်ထပ်ဖို့ ကြိုးစားပေမဲ့ ဘရိန်းနက်ရဲ့ မေ့လျော့ပေါ့ဆမှုတွေကြောင့် ‌မအောင်မြင်သေးပါဘူး။ တစ်ဖက်မှာလည်း ဖိလစ်ဟာ သူ့ရဲ့ စမ်းသပ်ချက်တွေကနေ သက်ရှိဇီ၀ ဖလူဘာလို့ခေါ်တဲ့ရောဘာကောင်လေးကို ရှာဖွေတွေ့ရှိသွားတဲ့အခါမှာ ဘာတွေဆက်ဖြစ်သွားမလဲ၊ ကောလိပ်ကိုကော ဘယ်လိုအကျိုးရှိရှိလုပ်ပေးသွားသလဲ၊ ချစ်ရသူ ဆာရာနဲ့ကော ရွှေလက်တွဲသွားနိုင်ပါ့မလားဆိုတာကိုတော့ပရိတ်သတ်ကြီး ဆက်လက်ခံစားကြည့်ရှုလိုက်ပါခင်ဗျာ။ Comedy, Family, Sci-Fi ကားလေးဖြစ်ပြီးကလေးတွေအတွက် Entertain ဖြစ်စေပြီး ..."
    },
    {
      "id": 7547,
      "quality": "EXTENDED Blu-Ray 720p",
      "title": "Argo ",
      "rate": "7.7",
      "type": "movie",
      "year": 2012,
      "link": "http://moviechannel.herokuapp.com/movie/argo-2012/",
      "slug": "argo-2012",
      "img": "https://channelmyanmar.org/wp-content/uploads/2020/06/ARGO-2012-135x200.jpg",
      "image": "https://channelmyanmar.org/wp-content/uploads/2020/06/ARGO-2012-135x200.jpg",
      "overview": "ARGO====ARGO ရုပ်ရှင်ဟာ ၁၉၇၉-၈၀ မှာဖြစ်ခဲ့တဲ့ အီရန်တော်လှန်ရေးအတွင်းသံရုံးက လွတ်မြောက်အမေရိကန်သံရုံးဝန်ထမ်း ၆ ယောက်ကို ကယ်ထုတ်တဲ့အကြောင်းကိုရိုက်ပြထားတဲ့ဇတ်ကားပါ။၁၉၇၉ မှာ အီရန်နိုင်ငံတွင်းတော်လှန်ရေးဖြစ်ခဲ့ပါတယ် တော်လှန်ရေးအတွင်းမှာအမေရိကန်သံရုံးကိုသိမ်းပြီး အီရန်ဘုရင်ဟောင်း ရှားကိုနိုင်ငံခိုလှုံခွင့်ပေးထားရာကနေပြန်လွဲပေးဖို့တောင်းဆိုလာခဲ့ပါတယ်။ အဲ့ဒီသံရုံးအသိမ်းခံရချိန်မှာ လွတ်သွားတဲ့ သံရုံးဝန်ထမ်း ၆ ယောက်ကိုကယ်ဖို့ စီအိုင်အေကလူတွေကြိုးစားကြပုံကိုရိုက်ကူးထားတာဖြစ်ပါတယ်။ARGO ကို အောက်တိုဘာ ၁၂ ရက် ၂၀၁၂ ခုနှစ်မှာထွက်ခဲ့ပြီးတော့ဇတ်လိုက်မင်းသား Ben Affleck ကိုယ်တိုင်ရိုက်ကူးထားပြီး ထုတ်လုပ်သူကလဲ Ben Affleck နဲ့ George Clooney ကြီးတို့ပါပဲ။ဒီဇတ်ကားဟာ ၈၅ ကြိမ်မြောက်အကယ်ဒမီမှာ nominations ၇ ခုဝင်ပြီး ဆု သုံးခုရခဲ့ပါတယ်(Best Picture, Best Adapted Screenplay, and Best Film Editing) အဲ့နောက် Golden Globe Award မှာလဲBest Motion Picture – Drama ..."
    },
    {
      "id": 7661,
      "title": "Proximity ",
      "rate": "4.5",
      "type": "movie",
      "year": 2020,
      "link": "http://moviechannel.herokuapp.com/movie/proximity-2020/",
      "slug": "proximity-2020",
      "img": "https://channelmyanmar.org/wp-content/uploads/2020/07/Screen-Shot-2020-07-02-at-9.30.16-PM-135x200.png",
      "image": "https://channelmyanmar.org/wp-content/uploads/2020/07/Screen-Shot-2020-07-02-at-9.30.16-PM-135x200.png",
      "overview": "Proximity (2020)==============IMDb Rating - 4.5/10#Unicodeဒီနေ့ညအတွက် ပေါ့ပေါ့ပါးပါးလေးနဲ့ ကြည့်လိုကောင်းမယ့်  Drama, Sci-Fi ကားလေးတင်ပေးချင်ပါတယ်။တစ်နေ့မှာ ကမ္ဘာမြေပေါ်ကို ဥက္ကာပျံတွေ ကျရောက်လာပါတယ် ။ အဲ့ဒီမှာ တစ်ခါထဲ Alien (ဂြိုလ်သား)တွေပါ။ရောက်လာခဲ့တာကိုတော့ လူသားတွေမသိကြပါဘူး။ Issac ဟာ NASAအာကာသနယ်မြေသစ်ရှာဖွေရေးအဖွဲ့ JPL ရဲ့ Scientist တစ်ဦးပါ။ ဥက္ကာခဲတွေ ကျတဲ့နေ့မှာ သူကတိုက်တိုက်ဆိုင်ဆိုင် Alien တွေရဲ့ ပြန်ပေးဆွဲခြင်းကိုခံလိုက်ရပါတယ်။ သူပြန်လွတ်လာတော့ ဂြိုလ်သားကပြန်ပေးဆွဲသွားတယ်ဆိုတဲ့အကြောင်းကိုဘယ်သူမှမယုံကြပါဘူး ။ အဲ့ဒါကို သူကဘယ်လိုသက်သေပြမလဲ ..... ဂြိုလ်သားတွေကရော ဘာလို့ ကမ္ဘာမြေပေါ်ရောက်လာခဲ့တာလဲ ဆိုတာ စိတ်၀င်စားဖွယ်ဆက်လက်ကြည့်ရှုရမှာပါ။(ဒီဇာတ်လမ်းရဲ့ အညွန်းနဲ့ဘာသာပြန်ရေးသားပေးသူကတော့ Thiha Yan Naing ပဲဖြစ်ပါတယ်။)#Zawgyiဒီေန႔ညအတြက္ ေပါ့ေပါ့ပါးပါးေလးနဲ႔ ၾကည့္လိုေကာင္းမယ့္ Drama, Sci-Fi ကားေလးတင္ေပးခ်င္ပါတယ္။တစ္ေန႔မွာ ကမာၻေျမေပၚကို ဥကၠာပ်ံေတြ က်ေရာက္လာပါတယ္ ။ အဲ့ဒီမွာ တစ္ခါထဲ Alien ..."
    },
    {
      "id": 7647,
      "title": "Birds Without Names",
      "rate": "6.5",
      "type": "movie",
      "year": 2017,
      "link": "http://moviechannel.herokuapp.com/movie/birds-without-names2017/",
      "slug": "birds-without-names2017",
      "img": "https://image.tmdb.org/t/p/w185/aejO0MHVoHrjms4gLh6bCwCzmt2.jpg",
      "image": "https://image.tmdb.org/t/p/w185/aejO0MHVoHrjms4gLh6bCwCzmt2.jpg",
      "overview": "Birds Without Names(2017)ပိုင်ဆိုင်လိုခြင်းပဲလား၊ စွန့်လွှတ်လိုမှုပဲလား။ အချစ်ဆိုတာ ဘာများလဲ။ မသေချာပါ။အချို့က ရယူလို အချို့က ပေးဆပ်လိုကြပြီ။ လူဆိုတာ အတောင်ပံခတ်တတ်စကတည်းကိုက သင်းကွဲလာရတဲ့ ငှက်တွေသာ။ အဆုံးမတော့ တစ်ကိုယ်ရေတည်း ဖြစ်ရကြပြန်ပေမည်။ အထီးကျန်ခြင်းသည် လူသား၏တစ်စိတ်တစ်ဒေသ ဟု ဒဿနိကပညာရှင်တို့က ဆိုထား၏။လူသားရဲ့ ပင်ကိုယ်ဗီဇတွင် အထီးကျန်ခြင်းသည် ထည့်သွင်း မြှပ်နှံခဲ့ပြီးသား ဖြစ်သည်။အထီးကျန်ခြင်းသည် စိတ်ဖိစီးမှု မြင့်တတ်စေသော cortisolဟော်မုန်းကို ထွက်စေသည်ဟုဆေးပညာကဆို ထားပြီး အထီးကျန်ခြင်းကြောင့် ခံစားရသော စိတ်ဝေဒနာသည်ကိုယ်ထိလက်ရောက် ကျူးလွန်ခံရသော ဝေဒနာထက်မသေးဟုစိတ်ပညာက ပြောပြန်သည်။ ကျွန်တော် မမြင်ဖူးသော နတ်ဘုရားတို့သည်ဒဏ္ဍာရီအတိုင်း အင်အားကြီးသော လူသားတို့အား ထက်ခြမ်းကွဲ၀မ်းနည်းစေခဲ့သည်ဆိုပါစို့။ အထီးကျန်ခြင်းသည် လူသား၏ အားနည်းချက်ဖြစ်ပေမည်။လူသားတစ်‌ယောက်သည် အထီးကျန်ခြင်းအား ကုစားရန်အလို့ငှာတပါးသောလူသားတစ်ယောက်အား မှီခိုအားထားရသည်။သူတို့ကြားက ပေါင်းကူးတံတားကလေးအား ချစ်ခြင်းဟုခေါ်ပါစေ။ချစ်စိတ် ကိန်း၀ပ်နေသော လူသားသည် အားအကြီးဆုံးဖြစ်သည်ဒီလူသားများ ဘာမဆို လုပ်ရဲလုပ်နိုင်ကြသည်။ ဂျပန်လူမျိူးတို့၏ သင်္ကေတဗေဒအတိုင်းဆိုလျှင်ငှက်တို့သည် ချစ်ခြင်းကို ..."
    },
    {
      "id": 7643,
      "quality": "BluRay 720p",
      "title": "The Beast ",
      "rate": "5.9",
      "type": "movie",
      "year": 2019,
      "link": "http://moviechannel.herokuapp.com/movie/the-beast-2019/",
      "slug": "the-beast-2019",
      "img": "https://image.tmdb.org/t/p/w185/bj1d3E5zxYSc77iPVdfHI8eSGtK.jpg",
      "image": "https://image.tmdb.org/t/p/w185/bj1d3E5zxYSc77iPVdfHI8eSGtK.jpg",
      "overview": "ဒီကားလေးကတော့ မင်းသားကြီးနှစ်ယောက်အပြိုင်သရုပ်ဆောင်ထားတဲ့ကိုရီးယားစုံထောက်ဇာတ်ကားကောင်းတစ်ကောင်းပါ မှုခင်းဌာနရဲ့အဖွဲ့နှစ်ဖွဲ့ခေါင်းဆောင်နှစ်ယောက်အပြိုင်အဆိုင်အမှုလိုက်ကျပုံကို ဇာတ်လမ်းကျကျရိုက်ကူးပြထားတာပါ ဒါပေမယ့်လဲခေါင်းဆောင်နှစ်ယောက်ရဲ့မတူညီတဲ့စိတ်ထားတွေ တစ်ယောက်နဲ့တစ်ယောက်ပြိုင်ဆိုင်လိုစိတ်ပြင်းထန်မှုတွေနဲ့ မနာလိုဝန်တိုမှုတွေ တဇွတ်ထိုးလုပ်တာတွေကြောင့် ကွင်းဆက်လူသတ်မှုနောက်ကိုလိုက်ရင်း နောက်လိုက်ရဲတွေသေဆုံးခဲ့ရပါတယ် ဖမ်းဆီးမိခဲ့တဲ့လူသတ်သမားကလဲတကယ့်လူသတ်သမားအစစ်အမှန်မဟုတ်တဲ့အပြင် တခြာမူးယစ်အရောင်းအဝယ်ဂိုဏ်းတွေပါ ပါလာတဲ့အခါမှာ သူတို့နှစ်ယောက်ဘယ်လိုတွေဖြေရှင်းမလဲ နှစ်ယောက်ကြားမှာရောဘာတွေဆက်ဖြစ်လာမလဲဆိုတာကိုသေချာရိုက်ကူထားတဲ့ စုံထောက်ဇာတ်ကားကောင်းတစ်ကားလေးဖြစ်မှာပါ File Size : ( 1 GB , 448 MB)Quality : BluRay 720pRunning Time : 2 hr 10 minFormat : Mp4 Genre : Action , Crime , ThrillerSubtitle : Myanmar Subtitle (Hard Sub) Translated by PhueEncoded by Moe Myint Lwin  "
    },
    {
      "id": 7627,
      "title": "Big Match",
      "rate": "6.2",
      "type": "movie",
      "year": 2014,
      "link": "http://moviechannel.herokuapp.com/movie/big-match2014/",
      "slug": "big-match2014",
      "img": "https://image.tmdb.org/t/p/w185/fw93fy3fR6mGq0pmddyNB0qDZrB.jpg",
      "image": "https://image.tmdb.org/t/p/w185/fw93fy3fR6mGq0pmddyNB0qDZrB.jpg",
      "overview": "Big Match(2014)CM fan တွေအတွက် action ဇာတ်လမ်းလေးတစ်ခုကို ထပ်ပြီးတင်ဆက်ပေးလိုက်ပါတယ် ...ဇာတ်လမ်းအကျဉ်း ချွဲအီဂိုဟာ နာမည်ကြီး MMA Fighter တစ်ယောက်ဖြစ်ပါတယ်...ဒီမတိုင်ခင်မှာ နိုင်ငံဘောလုံးသမားတစ်ယောက်ဖြစ်ခဲ့ပြီး သူ့ရဲ့ ဒေါသကြီးတဲ့စိတ်ကြောင့် အနီကတ်ပြခံခဲ့ရပါတယ် ...အဲ့နောက်မှာတော့ ဘောလုံးကစားသမားအဖြစ်ကနေ နှုတ်ထွက်ပြီး အစ်ကိုဖြစ်သူရဲ့ နည်းပြပေးမှုနဲ့  MMA  Fighterဖြစ်လာခဲ့ပါတယ် ....ဒီလိုပြိုင်ပွဲတွေဆင်နွဲနေတုန်း  ချွဲအီဂိုရဲ့အစ်ကို ပြန်ပေးဆွဲခံခဲ့ရပါတယ်...အဲ့နောက်မှာ ပြန်ပေးဆွဲသူဟာ ချွဲအီဂိုကို ထူးထူးဆန်းဆန်း ကိစ္စတွေကို ဆက်တိုက်ခိုင်းပါတော့တယ်..ချွဲအီဂိုခမျာ ပြန်ပေးဆွဲသမားရဲ့ ခိုင်းတာတွေကို အသဲအသန်လုပ်ရ အစ်ကိုြဖစ်သူကို ကယ်ဆယ်ဖို့လည်း ကြိုးစားရနဲ့...ချွဲအီဂိုတစ်ယောက် သူ့အစ်ကို ကို ကယ်တင်နိုင်မှာလား...ဘာကြောင့် သူ့အစ်ကို ပြန်ပေးဆွဲခံရတာလဲဆိုတာကို ဒီဇာတ်ကားလေးမှာ ကြည့်ရှုကြပါနော်..ဇတ်လမ်းအညွှန်းနဲ့ဘာသာပြန်သူကတော့ Han Thu Aye ပဲဖြစ်ပါတယ်...File Size : (1.02 GB) and (394 MB)Quality : HDRip 720pFormat…mp4Duration…01:52:00Genre : ..."
    },
    {
      "id": 7624,
      "title": "The Last Emperor ",
      "rate": "7.7",
      "type": "movie",
      "year": 1987,
      "link": "http://moviechannel.herokuapp.com/movie/the-last-emperor-1987/",
      "slug": "the-last-emperor-1987",
      "img": "https://channelmyanmar.org/wp-content/uploads/2020/07/220px-The_Last_Emperor_filmposter-149x200.jpg",
      "image": "https://channelmyanmar.org/wp-content/uploads/2020/07/220px-The_Last_Emperor_filmposter-149x200.jpg",
      "overview": "The Last Emperor (1987)===================IMDb Rating - 7.7/10#Unicodeနောက်ဆုံး ဧကရာဇ်တဲ့ . . .နှစ်ပေါင်းနှစ်ထောင်ကျော်သက်တန်းကြာခဲ့တဲ့ တရုတ်ပြည်ကြီးရဲ့ သက်ဦးဆံပိုင် အုပ်ချုပ်ရေးမှာကျိန်မင်းဆက်ရဲ့ နောက်ဆုံး ဧကရာဇ် ပုယီ၊ အသက် ၃နစ်သားကတည်းက နောက်ကွယ်က ကြိုးကိုင်ချင်တဲ့လူတွေကြောင့် ရင်ခွင်ပိုက် ဧကရာဇ်ဖြစ်လာခဲ့တယ် ။ နောက်တော့ သမ္မတနိုင်ငံခေတ်မှာအဆောင်အယောင်တွေ မစွန့်လွှတ်ရပေမယ့် ထီးနန်းတော့ စွန့်လွှတ်ခဲ့ရပြီ ။  အချိန်ကတော့တရုတ်ပြည်တခုလုံး စစ်ဘုရင်တွေ အာဏာပြိုင်လုနေတဲ့အချိန်ပေါ့ ။ တရုတ်ပြည်ကြီးရဲ့အကြောင်းတော့ မဆိုထားနဲ့ နန်းတော်အပြင်ဘက်လေးမှာတောင် ဘာဖြစ်လို့ ဖြစ်မှန်း သိခွင့်မရတဲ့ ပုယီ ။ဆရာ ရယ်ဂျီနယ်ဖလီးမင်းဂျွန်စတန် ရဲ့ အဆုံးအမတွေနဲ့ ကြီးပြင်းခဲ့ရတဲ့ ပုယီ ။ ကိုယ့်ကြင်ယာတော်ကိုတောင် ကိုယ်ရွေးခွင့် မရှိတဲ့ပုယီ။ ဂျပန့်လက်အောက်ခံ မန်ချူးကိုး ဧကရာဇ် ပုယီ ။ ၁၉၅၀အလွန်မော်စီတုန်းခေတ်ရဲ့ ပြန်လည်ထူထောင်ရေး စခန်းက အကျဥ်းသား ..."
    },
    {
      "id": 7614,
      "title": "Miss Forever ",
      "rate": "8.0",
      "type": "movie",
      "year": 2020,
      "link": "http://moviechannel.herokuapp.com/movie/miss-forever-2020/",
      "slug": "miss-forever-2020",
      "img": "https://channelmyanmar.org/wp-content/uploads/2020/07/miss-forever-chinese-movie-poster-135x200.jpg",
      "image": "https://channelmyanmar.org/wp-content/uploads/2020/07/miss-forever-chinese-movie-poster-135x200.jpg",
      "overview": "စတီဗင်ချောင်ရဲ့ဇာတ်ကားတစ်ကားဖြစ်တဲ့ CJ7 ဆိုတဲ့ကားကိုတော်တော်များများကြည့်ဖူးကြမယ်ထင်ပါတယ်နော်ဆင်းရဲသားသားအဖနဲ့ ဂြိုလ်သားလေးအကြောင်းလေအဲ့ထဲကကောင်လေးလို့ထင်ခဲ့ကြတဲ့သရုပ်ဆောင်ကလေးမလေးဟာအခုဆိုရင်ခေါင်းဆောင်မင်းသမီးနေရာကနေပါဝင်သရုပ်ဆောင်နိုင်လောက်အောင်ထိ အရွယ်ရောက်လာပါပြီရွှီးချို(မင်းသမီး)ဟာ ဖန်းယောင်နေရာကပါဝင်သရုပ်ဆောင်ထားပြီးရှဲ့လင်လင်(မင်းသား)ကတော့ တရုတ်နိုင်ငံမှာထင်ရှားခဲ့တဲ့တေးရေးအဆိုတော် အိုးရန်အဖြစ် သရုပ်ဆောင်ထားကြပါတယ်၁၉၉၄ခုနှစ်တွေဆီကိုအခြေခံထားတဲ့ဒီကားဟာအဲ့ဒီခေတ်တက္ကသိုလ်ကျောင်းသူကျောင်းသားတွေရဲ့ဘဝကိုပြန်လည်အမှတ်ရမိစေမှာပါဇာတ်လမ်းအကျဥ်း -ဘဝမှာဘာအိပ်မက်မှမရှိခဲ့တဲ့ကောင်လေးအိုးရန် သူမြင်မြင်ချင်းချစ်မိခဲ့တဲ့ ဖန်းယောင်ဆိုတဲ့ကောင်မလေးကိုတွေ့ချိန်ကစလို့ ဂီတကို စတင်ရူးသွပ်လာခဲ့တယ်ကောင်မလေးဆီကအချစ်ကိုရဖို့ဂစ်တာမတတ်ပဲတီးတတ်ချင်ယောင်ဆောင်ခဲ့တယ်ဒါပေမယ့် ကောင်မလေးရဲ့ရည်းစားဟောင်းသူတို့နှစ်ယောက်ကြားဝင်ရောက်လာတဲ့နောက်ပိုင်းမှာဘယ်လိုတွေဆက်ဖြစ်မှာလဲ စောင့်ကြည့်လိုက်ကြရအောင်နော် File Size - 1.2 GBQuality - Web-Dl 1080pSubtitle - Burmese (Hardsub)Translator - Nay ChiiEncoder - Thit San Khant "
    },
    {
      "id": 7615,
      "title": "Antrum",
      "rate": "4.9",
      "type": "movie",
      "year": 2018,
      "link": "http://moviechannel.herokuapp.com/movie/antrum2018/",
      "slug": "antrum2018",
      "img": "https://image.tmdb.org/t/p/w185/20de4Rcmy4B0L5zyOc3Nc5F7c0D.jpg",
      "image": "https://image.tmdb.org/t/p/w185/20de4Rcmy4B0L5zyOc3Nc5F7c0D.jpg",
      "overview": "Antrum(2018)Antrum ကမ္ဘာပေါ်မှာ လူအသေအပျောက်များဆုံးရုပ်ရှင်တဲ့။ဒီရုပ်ရှင်နဲ့ ပတ်သက်တဲ့ အကြောင်းအရာတွေကတော့ ဇာတ်ကားထဲမှာ ပါနေတဲ့အတွက် ထပ်မပြောတော့ပါဘူး။သတိပဲပေးချင်ပါတယ်။ လူပေါင်း ၅၀ ကျော်က ဒီရုပ်ရှင်ကို ကြည့်လို့ သေကြရတာပါလို့အခိုင်အမာယုံကြည်သူတွေရှိနေပါတယ်။ ရုပ်ရှင်ကြည့်တာနဲ့ပဲ သေနိုင်မှာလား။ စမ်းချင်စရာပဲနော်။မပူပါနဲ့ ဒီရုပ်ရှင်က မူရင်း Antrum ရုပ်ရှင်မဟုတ်ပါဘူး။ မူရင်းရုပ်ရှင်က ပျောက်နေတာပါ။ဒါပေမဲ့ တကယ်ကြောက်စရာကောင်းတဲ့ ရုပ်ရှင်ဆိုတာတော့ ငြင်းမရပါဘူး။ဝုန်းကနဲ ထခုန်ရမယ့် ခြောက်လုံးတွေ တစ်ခုမှာမပါဘဲ တစိမ့်စိမ့်ကြောက်နေရမယ့် ဇာတ်ကားပါ။ကြောက်အောင်လည်း သေချာလုပ်ထားပါတယ်။ အဲဒါကြောင့် မသေနိုင်ဘူးဆိုပေမဲ့လည်းစိတ်အားငယ်တတ်တဲ့သူတွေ၊ ကြောက်တတ်တဲ့သူတွေ မကြည့်ကြဖို့ သတိပေးချင်ပါတယ်။ကြောက်တော့ ကြောက်တယ် ကြည့်ချင်တယ်ဆိုတဲ့သူတွေ လက်ရှောင်သင့်ပါတယ်။သတိတော့ပေးပြီးပြီဗျာ။ ကြည့်ချင်တဲ့သူတွေ ကိုယ့်ဘာသာ တာဝန်ယူနိုင်တယ်ဆိုရင်တော့ ကြည့်လိုက်ကြပါဦး။ဇာတ်လမ်းအညွှန်းနဲ့ဘာသာပြန်သူကတော့ D3mon ပဲဖြစ်ပါတယ်...File Size : (850 MB) and (312 MB)Quality : WEB-DL 720pFormat…mp4Duration…01:35:00Genre : HorrorSubtitle : Myanmar ..."
    },
    {
      "id": 7605,
      "title": "Winter’s Bone",
      "rate": "7.2",
      "type": "movie",
      "year": 2010,
      "link": "http://moviechannel.herokuapp.com/movie/winters-bone2010/",
      "slug": "winters-bone2010",
      "img": "https://image.tmdb.org/t/p/w185/a0qhPkNlxLfsf5B2jFyI1Pp04XV.jpg",
      "image": "https://image.tmdb.org/t/p/w185/a0qhPkNlxLfsf5B2jFyI1Pp04XV.jpg",
      "overview": "Winter's Bone (2010)IMDB 7.2Rotten Tomatoes 94%(အော်စကာ ၄ဆု ဆန်ကာတင်စာရင်းဝင်ခဲ့သလို အခြားဆု ၆၃ဆုတောင်ဆွတ်ခူးရရှိခဲ့တယ်...)အကိုကြီး အဖရာ အမကြီး အမိရာဆိုသလို မိသားစု တစ်စုမှာ အကြီးဆုံးဖြစ်ရတာ မလွယ်လှပါဘူး။အမေကလည်း ကျန်းမာရေးမကောင်း ၊ မူလတန်းကျောင်းနေအရွယ် မောင်လေးနဲ့ ညီမလေး ၊အဖေဖြစ်သူကလည်း မူးယစ်ဆေးရောင်းဝယ်မှု့နဲ့ တရားရင်ဆိုင်နေရတာကြောင့် တစ်အိမ်လုံးရဲ့စားဝတ်နေရေးကရီခ်ဒီုလီဆိုတဲ့ ကောင်မလေးတစ်ယောက်ရဲ့ ပုခုံးပေါ်ကိုကျရောက်လာခဲ့ပါတယ်။ ကလေးတွေရဲ့ ကျောင်းစရိတ် ၊ အမေဖြစ်သူရဲ့ဆေးဖိုးတွေနဲ့ ကျပ်တည်းနေတုန်းမှာပဲကံဆီုးခြင်းမုန်တိုင်းတွေဟာ ပိုမိုပြင်းထန်လာခဲ့သလိုတစ်ပူပေါ်တစ်ပူဆင့်လို့ ဆိုရမှာပါပဲ။ ဖခင်ဖြစ်သူ ရုံးချိန်းအမှီပြန်ပေါ်မလာခဲ့ရင် လုပ်ထုံးလုပ်နည်းအရရိခ်တို့ရဲ့ နေအိမ်ကို သိမ်းယူမယ်ဆိုတဲ့ ရဲမှူးကြီးရဲ့ စကားသံက သူမရဲ့ခေါင်းပေါ်ကို သံရည်ပူတွေ လောင်းချလိုက်သလိုပါပဲ။ ဒီမိသားစုလေး မကွဲပြားဖို့ဆိုရင်ရိခ်တစ်ယောက် အဖေဖြစ်သူ မဖြစ်မနေရှာဖွေရတော့မှာပါ။ သို့ပေမယ့် အဖေဖြစ်သူရဲ့ပျောက်ဆုံးမှု့က ထင်သလောက် မရိုးရှင်းမှန်း ရိခ်တစ်ယောက် သိလာတဲ့အခါမှာတော့.......။ဒီကားလေးကို (၃)(၄) ခါလောက်ပြန်ကြည့်မိပါတယ်။ ထပ်ခါထပ်ခါ ကြည့်လေလေရိခ်အဖြစ်သရုပ်ဆောင်တဲ့ Jennifer ..."
    },
    {
      "id": 7562,
      "title": "The American",
      "rate": "6.5",
      "type": "movie",
      "year": 2010,
      "link": "http://moviechannel.herokuapp.com/movie/the-american2010/",
      "slug": "the-american2010",
      "img": "https://image.tmdb.org/t/p/w185/kvljIDnRqkXU2QnpLrdiN0GAam1.jpg",
      "image": "https://image.tmdb.org/t/p/w185/kvljIDnRqkXU2QnpLrdiN0GAam1.jpg",
      "overview": "The American(2010)IMDb....6.5,,,,Rotten ....70%မင်းသားကြီး  George Clooney ရဲ့အမိုက်စားကားကိုတင်ဆက်ပေးလိုက်ပါသည်....အဖွဲ့အစည်းတစ်ခုလက်အောက်မှာနေပြီးတော့  လျှို့ဝှက်စွာ အလုပ်လုပ်တဲ့ ဂျက်ဆိုတဲ့ သူတစ်ယောက်ရှိတယ်...သူလုပ်တဲ့အလုပ်က ဘယ်သူမှ မသိအောင် သဲလွန်စဖျောက်ပြီး လူသတ်တဲ့အလုပ်ပါပဲ....အလုပ်လုပ်တာအတော်ကြာလာတော့း မကျေနပ်တဲ့အဖွဲ့အစည်းတွေက စုံစမ်းရင်းသိလာပြီးတဲ့နောက်မှာတော့ဂျက်ကိုပြန်လည် သုတ်သင်ဖို့ စတင်ကြိုးစားလာကြတယ်...ဒီလို သားကောင်အဖြစ်ပြန်ရောက်ရတဲ့ ဂျက်တစ်ယောက်အီတလီနိုင်ငံက မြို့ငယ်လေးတစ်မြို့မှာ ကိုယ်ယောင်ဖျောက်ပြီးသွားရောက်နေထိုင်ဖို့ကြိုးစားပါတယ်...သို့ပေမယ်.......သူ့ကိုလိုက်သတ်ကြတဲ့သူတွေဟာ ဘယ်သူတွေများဖြစ်မလဲ...လူပေါင်းများစွာကိုသတ်ပစ်ခဲ့တဲ့ သွေးအေးလူသတ်သမားကြီးဂျက်တစ်ယောက် အသက်ဘေးကနေလွတ်မြောက်နိုင်ပါ့မလားဆိုတာစောင့်ကြည့်လိုက်ကြပါဦး...ဒီဇာတ်ကားလေးကို အီတလီသရုပ်ဆောင်နဲ့အဆိုတော် Violante Placidoရဲ့ ရင်သပ်ရှုမောဖွယ်အလှအပတွေဝေဝေဆာဆာတွေကိုလည်းတွေ့ရမှာပါ...ဇာတ်လမ်းအညွှန်းနဲ့ဘာသာပြန်သူက MarTizasဖြစ်ပါတယ် File Size : (900 MB) and (343 MB)Quality : Blu-Ray 720pFormat…mp4Duration…01:45:00Genre : Crime , Drama, ThrillerSubtitle : Myanmar Subtitle (Hard Sub)Translated by MarTizasEncoded by Phyo Pyae  "
    },
    {
      "id": 7557,
      "title": "Immortals ",
      "rate": "6.0",
      "type": "movie",
      "year": 2011,
      "link": "http://moviechannel.herokuapp.com/movie/immortals-2011/",
      "slug": "immortals-2011",
      "img": "https://channelmyanmar.org/wp-content/uploads/2020/07/Screen-Shot-2020-07-01-at-9.49.13-AM-137x200.png",
      "image": "https://channelmyanmar.org/wp-content/uploads/2020/07/Screen-Shot-2020-07-01-at-9.49.13-AM-137x200.png",
      "overview": "Immortals (2011)=============IMDb Rating - 6.0/10#Unicodeဂရိသူရဲကောင်း သီးစီးယက်စ်ကို အားလုံးပဲသိကြမှာပါ။ သူက ဟာဂျူလီတို့လို အင်အားကြီးမားတဲ့သူရဲကောင်းမျိုး မဟုတ်ပေမယ့် ဥာဏ်ပညာကြီးမားပြီး တိုက်ရည်ခိုက်ရည်ကောင်းတဲ့ သူရဲကောင်းတစ်ယောက်ပါပဲ။ ဒီကားဟာ ဂရိဒဏ္ဍာရီတွေပေါ် မှီငြမ်းရိုက်ကူးထားတဲ့ Fantasy အမျိုးအစားပဲဖြစ်ပါတယ်။ သို့ပေမယ့် ဇာတ်လမ်းကြောရိုးသာတူပြီး ငယ်ငယ်တုန်းကဖတ်ခဲ့ဖူးတဲ့ ပုံပြင်တွေနဲ့တော့ကွဲထွက်နေမှာ အမှန်ပါပဲ။ ဇာတ်လမ်းကတော့ လူသားမျိုးနွယ်ကို ဖျက်စီးဖို့ ဘုရင်ဟစ်ပီးရီးယန်းကအစ်ပိုင်းရပ်စ်လေးတော်ကို လိုက်ရှာနေတာနဲ့ အစပြု့ထားပါတယ်။ လူသားတို့ရဲ့ အရေးကိစ္စတွေထဲပါဝင်ပတ်သက်ခြင်းမပြု့ရလို့ ဇူးစ်ကိုယ်တိုင်က ဥပဒေချမှတ်ထားတာကြောင့် နတ်ဘုရားတွေကိုယ်တိုင်ကလည်း ဝင်ကူညီရခက်နေကြပါတယ်။ ဒါကြောင့် ဘုရင်ကြီးဟစ်ပီးရီးယန်းကို တားဆီးနိုင်ဖို့အတွက်သီးစီးယက်စ်ရဲ့ အကူအညီကို ရယူရပါတော့တယ်...။  ဒီကားရဲ့ တင်ဆက်ပုံဟာ 300 Spartans ကားနဲ့အတော်လေးတူညီနေတာကို သတိထားမိတယ်။ နောက်ခံတွေ တိုက်ပွဲတွေဟာ 300 ကားကိုပြန်ကြည့်နေရသလိုပါပဲ။ Fan တွေကတော့ ဂရိဒဏ္ဍာရီတွေနဲ့ အတော်လေးကွဲထွက်နေတာကို သိပ်သဘောမကျကြပုံပါပဲ။  ဒါပေမယ့် ကျွန်တော်တို့ရဲ့ စူပါမင်း(Man of ..."
    }
  ]
}
